Convert Bayes factors to beta and standard error
…
Get Z scores from lbf

a <- lbf_to_z_cont(sout$lbf_variable[1,], 50000, ss$af, prior_v = 50)
a

# A tibble: 501 × 5
     lbf     af     z   beta      se
   <dbl>  <dbl> <dbl>  <dbl>   <dbl>
 1 -2.16 0.373   1.63 0.0107 0.00654
 2 -2.47 0.169   1.34 0.0113 0.00844
 3 -2.42 0.17    1.38 0.0116 0.00842
 4 -2.47 0.169   1.34 0.0113 0.00844
 5 -2.47 0.169   1.34 0.0113 0.00844
 6 -1.79 0.191   1.79 0.0144 0.00805
 7 -2.47 0.169   1.34 0.0113 0.00844
 8 -2.48 0.17    1.34 0.0112 0.00842
 9  5.28 0.0139  4.02 0.108  0.0270 
10 -2.47 0.169   1.34 0.0113 0.00844
# ℹ 491 more rows
…
